[
    [
        {
            "name": "Automation",
            "reqs": [
                10,
                0,
                0,
                10
            ],
            "imag": "automation-1.png"
        },
        {
            "name": "Steel processing",
            "reqs": [
                50,
                0,
                0,
                5
            ],
            "imag": "steel-processing.png"
        },
        {
            "name": "Military",
            "reqs": [
                10,
                0,
                0,
                15
            ],
            "imag": "military.png"
        }
    ],
    [
        {
            "name": "Logistics",
            "reqs": [
                20,
                0,
                0,
                15
            ],
            "imag": "logistics-1.png"
        },
        {
            "name": "Optics",
            "reqs": [
                10,
                0,
                0,
                15
            ],
            "imag": "optics.png"
        },
        {
            "name": "Stone walls",
            "reqs": [
                10,
                0,
                0,
                10
            ],
            "imag": "stone-walls.png"
        },
        {
            "name": "Logistic science pack",
            "reqs": [
                75,
                0,
                0,
                5
            ],
            "imag": "logistic-science-pack.png"
        },
        {
            "name": "Electronics",
            "reqs": [
                30,
                0,
                0,
                15
            ],
            "imag": "electronics.png"
        },
        {
            "name": "Steel axe",
            "reqs": [
                50,
                0,
                0,
                30
            ],
            "imag": "steel-axe.png"
        },
        {
            "name": "Heavy armor",
            "reqs": [
                30,
                0,
                0,
                30
            ],
            "imag": "armor-making.png"
        },
        {
            "name": "Physical projectile damage 1",
            "reqs": [
                100,
                0,
                0,
                30
            ],
            "imag": "physical-projectile-damage-1.png"
        },
        {
            "name": "Weapon shooting speed 1",
            "reqs": [
                100,
                0,
                0,
                30
            ],
            "imag": "weapon-shooting-speed-1.png"
        },
        {
            "name": "Turrets",
            "reqs": [
                10,
                0,
                0,
                10
            ],
            "imag": "turrets.png"
        }
    ],
    [
        {
            "name": "Logistics 2",
            "reqs": [
                200,
                200,
                0,
                30
            ],
            "imag": "logistics-2.png"
        },
        {
            "name": "Advanced material processing",
            "reqs": [
                75,
                75,
                0,
                30
            ],
            "imag": "advanced-material-processing.png"
        },
        {
            "name": "Engine",
            "reqs": [
                100,
                100,
                0,
                15
            ],
            "imag": "engine.png"
        },
        {
            "name": "Automation 2",
            "reqs": [
                40,
                40,
                0,
                15
            ],
            "imag": "automation-2.png"
        },
        {
            "name": "Fast inserter",
            "reqs": [
                30,
                0,
                0,
                15
            ],
            "imag": "fast-inserter.png"
        },
        {
            "name": "Solar energy",
            "reqs": [
                250,
                250,
                0,
                30
            ],
            "imag": "solar-energy.png"
        },
        {
            "name": "Electric energy distribution 1",
            "reqs": [
                120,
                120,
                0,
                30
            ],
            "imag": "electric-energy-distribution-1.png"
        },
        {
            "name": "Landfill",
            "reqs": [
                50,
                50,
                0,
                30
            ],
            "imag": "landfill.png"
        },
        {
            "name": "Military 2",
            "reqs": [
                20,
                20,
                0,
                15
            ],
            "imag": "military.png"
        },
        {
            "name": "Toolbelt",
            "reqs": [
                100,
                100,
                0,
                30
            ],
            "imag": "toolbelt.png"
        },
        {
            "name": "Circuit network",
            "reqs": [
                100,
                100,
                0,
                15
            ],
            "imag": "circuits.png"
        }
    ],
    [
        {
            "name": "Automobilism",
            "reqs": [
                100,
                100,
                0,
                30
            ],
            "imag": "automobilism.png"
        },
        {
            "name": "Concrete",
            "reqs": [
                250,
                250,
                0,
                30
            ],
            "imag": "concrete.png"
        },
        {
            "name": "Fluid handling",
            "reqs": [
                50,
                50,
                0,
                15
            ],
            "imag": "fluid-handling.png"
        },
        {
            "name": "Lab research speed 1",
            "reqs": [
                100,
                100,
                0,
                30
            ],
            "imag": "research-speed.png"
        },
        {
            "name": "Gates",
            "reqs": [
                100,
                100,
                0,
                30
            ],
            "imag": "gates.png"
        },
        {
            "name": "Military science pack",
            "reqs": [
                30,
                30,
                0,
                15
            ],
            "imag": "military-science-pack.png"
        },
        {
            "name": "Stronger explosives 1",
            "reqs": [
                100,
                100,
                0,
                30
            ],
            "imag": "stronger-explosives-1.png"
        },
        {
            "name": "Physical projectile damage 2",
            "reqs": [
                200,
                200,
                0,
                30
            ],
            "imag": "physical-projectile-damage-1.png"
        },
        {
            "name": "Weapon shooting speed 2",
            "reqs": [
                200,
                200,
                0,
                30
            ],
            "imag": "weapon-shooting-speed-1.png"
        }
    ],
    [
        {
            "name": "Railway",
            "reqs": [
                75,
                75,
                0,
                30
            ],
            "imag": "railway.png"
        },
        {
            "name": "Oil processing",
            "reqs": [
                100,
                100,
                0,
                30
            ],
            "imag": "oil-gathering.png"
        },
        {
            "name": "Lab research speed 2",
            "reqs": [
                200,
                200,
                0,
                30
            ],
            "imag": "research-speed.png"
        },
        {
            "name": "Stronger explosives 2",
            "reqs": [
                200,
                200,
                200,
                30
            ],
            "imag": "stronger-explosives-2.png"
        },
        {
            "name": "Physical projectile damage 3",
            "reqs": [
                300,
                300,
                300,
                60
            ],
            "imag": "physical-projectile-damage-1.png"
        },
        {
            "name": "Weapon shooting speed 3",
            "reqs": [
                300,
                300,
                300,
                60
            ],
            "imag": "weapon-shooting-speed-2.png"
        }
    ],
    [
        {
            "name": "Automated rail transportation",
            "reqs": [
                75,
                75,
                0,
                30
            ],
            "imag": "automated-rail-transportation.png"
        },
        {
            "name": "Fluid wagon",
            "reqs": [
                200,
                200,
                0,
                30
            ],
            "imag": "fluid-wagon.png"
        },
        {
            "name": "Plastics",
            "reqs": [
                200,
                200,
                0,
                30
            ],
            "imag": "plastics.png"
        },
        {
            "name": "Sulfur processing",
            "reqs": [
                150,
                150,
                0,
                30
            ],
            "imag": "sulfur-processing.png"
        },
        {
            "name": "Physical projectile damage 4",
            "reqs": [
                400,
                400,
                400,
                60
            ],
            "imag": "physical-projectile-damage-1.png"
        },
        {
            "name": "Weapon shooting speed 4",
            "reqs": [
                400,
                400,
                400,
                60
            ],
            "imag": "weapon-shooting-speed-2.png"
        }
    ],
    [
        {
            "name": "Rail signals",
            "reqs": [
                100,
                100,
                0,
                30
            ],
            "imag": "rail-signals.png"
        },
        {
            "name": "Advanced electronics",
            "reqs": [
                200,
                200,
                0,
                15
            ],
            "imag": "advanced-electronics.png"
        },
        {
            "name": "Battery",
            "reqs": [
                150,
                150,
                0,
                30
            ],
            "imag": "battery.png"
        },
        {
            "name": "Explosives",
            "reqs": [
                100,
                100,
                0,
                15
            ],
            "imag": "explosives.png"
        },
        {
            "name": "Flammables",
            "reqs": [
                50,
                50,
                0,
                30
            ],
            "imag": "flammables.png"
        }
    ],
    [
        {
            "name": "Stack inserter",
            "reqs": [
                150,
                150,
                0,
                30
            ],
            "imag": "stack-inserter.png"
        },
        {
            "name": "Mining productivity 1",
            "reqs": [
                250,
                250,
                0,
                60
            ],
            "imag": "mining-productivity.png"
        },
        {
            "name": "Modules",
            "reqs": [
                100,
                100,
                0,
                30
            ],
            "imag": "module.png"
        },
        {
            "name": "Chemical science pack",
            "reqs": [
                75,
                75,
                0,
                10
            ],
            "imag": "chemical-science-pack.png"
        },
        {
            "name": "Modular armor",
            "reqs": [
                100,
                100,
                0,
                30
            ],
            "imag": "armor-making.png"
        },
        {
            "name": "Electic energy accumulators",
            "reqs": [
                150,
                150,
                0,
                30
            ],
            "imag": "electric-energy-acumulators.png"
        },
        {
            "name": "Cliff explosives",
            "reqs": [
                200,
                200,
                15
            ],
            "imag": "cliff-explosives.png"
        },
        {
            "name": "Land mines",
            "reqs": [
                100,
                100,
                100,
                30
            ],
            "imag": "land-mine.png"
        },
        {
            "name": "Rocketry",
            "reqs": [
                120,
                120,
                120,
                15
            ],
            "imag": "rocketry.png"
        },
        {
            "name": "Flamethrower",
            "reqs": [
                50,
                50,
                50,
                30
            ],
            "imag": "flamethrower.png"
        },
        {
            "name": "Combat robotics",
            "reqs": [
                100,
                100,
                100,
                30
            ],
            "imag": "combat-robotics.png"
        }
    ],
    [
        {
            "name": "Inserter capacity bonus 1",
            "reqs": [
                200,
                200,
                0,
                30
            ],
            "imag": "inserter-capacity.png"
        },
        {
            "name": "Productivity module",
            "reqs": [
                50,
                50,
                0,
                30
            ],
            "imag": "productivity-module-1.png"
        },
        {
            "name": "Speed module",
            "reqs": [
                50,
                50,
                0,
                30
            ],
            "imag": "speed-module-1.png"
        },
        {
            "name": "Efficiency module",
            "reqs": [
                50,
                50,
                0,
                30
            ],
            "imag": "effectivity-module-1.png"
        },
        {
            "name": "Portable solar panel",
            "reqs": [
                100,
                100,
                0,
                15
            ],
            "imag": "solar-panel-equipment.png"
        },
        {
            "name": "Refined flammables 1",
            "reqs": [
                100,
                100,
                100,
                30
            ],
            "imag": "refined-flammables.png"
        },
        {
            "name": "Follower robot count 1",
            "reqs": [
                200,
                200,
                200,
                30
            ],
            "imag": "follower-robots.png"
        }
    ],
    [
        {
            "name": "Inserter capacity bonus 2",
            "reqs": [
                250,
                250,
                0,
                30
            ],
            "imag": "inserter-capacity.png"
        },
        {
            "name": "Nightvision equipment",
            "reqs": [
                50,
                50,
                0,
                15
            ],
            "imag": "night-vision-equipment.png"
        },
        {
            "name": "Belt immunity equipment",
            "reqs": [
                50,
                50,
                0,
                15
            ],
            "imag": "belt-immunity-equipment.png"
        },
        {
            "name": "Personal battery",
            "reqs": [
                50,
                50,
                0,
                15
            ],
            "imag": "battery-equipment.png"
        },
        {
            "name": "Energy shield equipment",
            "reqs": [
                150,
                150,
                150,
                15
            ],
            "imag": "energy-shield-equipment.png"
        },
        {
            "name": "Refined flammables 2",
            "reqs": [
                100,
                100,
                100,
                30
            ],
            "imag": "refined-flammables.png"
        },
        {
            "name": "Follower robot count 2",
            "reqs": [
                200,
                200,
                200,
                30
            ],
            "imag": "follower-robots.png"
        }
    ]
]