[
    [
        0,
        0,
        1,
        4
    ],
    [
        0,
        1,
        1,
        5
    ],
    [
        0,
        1,
        1,
        6
    ],
    [
        0,
        2,
        1,
        6
    ],
    [
        0,
        2,
        1,
        7
    ],
    [
        0,
        2,
        1,
        8
    ],
    [
        1,
        4,
        2,
        4
    ],
    [
        2,
        0,
        7,
        0
    ],
    [
        2,
        0,
        4,
        0
    ],
    [
        2,
        0,
        3,
        0
    ],
    [
        2,
        1,
        3,
        1
    ],
    [
        2,
        2,
        3,
        0
    ],
    [
        2,
        2,
        4,
        0
    ],
    [
        2,
        2,
        3,
        2
    ],
    [
        2,
        3,
        3,
        1
    ],
    [
        2,
        3,
        3,
        2
    ],
    [
        2,
        3,
        3,
        3
    ],
    [
        2,
        5,
        8,
        4
    ],
    [
        2,
        6,
        7,
        5
    ],
    [
        2,
        8,
        3,
        4
    ],
    [
        2,
        8,
        7,
        6
    ],
    [
        2,
        8,
        3,
        5
    ],
    [
        2,
        8,
        3,
        6
    ],
    [
        3,
        2,
        5,
        1
    ],
    [
        3,
        2,
        4,
        1
    ],
    [
        3,
        3,
        4,
        2
    ],
    [
        3,
        5,
        9,
        4
    ],
    [
        3,
        5,
        7,
        7
    ],
    [
        3,
        5,
        7,
        8
    ],
    [
        3,
        5,
        7,
        9
    ],
    [
        3,
        5,
        7,
        10
    ],
    [
        3,
        6,
        4,
        3
    ],
    [
        3,
        7,
        4,
        4
    ],
    [
        3,
        8,
        4,
        5
    ],
    [
        4,
        0,
        5,
        0
    ],
    [
        4,
        0,
        5,
        1
    ],
    [
        4,
        1,
        5,
        2
    ],
    [
        4,
        1,
        5,
        3
    ],
    [
        4,
        1,
        6,
        4
    ],
    [
        4,
        4,
        5,
        4
    ],
    [
        4,
        5,
        5,
        5
    ],
    [
        5,
        0,
        6,
        0
    ],
    [
        5,
        2,
        6,
        1
    ],
    [
        5,
        3,
        7,
        3
    ],
    [
        5,
        3,
        6,
        2
    ],
    [
        5,
        3,
        6,
        3
    ],
    [
        6,
        1,
        7,
        0
    ],
    [
        6,
        1,
        7,
        1
    ],
    [
        6,
        1,
        7,
        2
    ],
    [
        6,
        1,
        7,
        3
    ],
    [
        6,
        1,
        7,
        4
    ],
    [
        6,
        2,
        9,
        3
    ],
    [
        6,
        2,
        7,
        5
    ],
    [
        6,
        3,
        7,
        6
    ],
    [
        6,
        3,
        7,
        7
    ],
    [
        6,
        3,
        7,
        8
    ],
    [
        6,
        4,
        7,
        8
    ],
    [
        6,
        4,
        7,
        9
    ],
    [
        7,
        0,
        8,
        0
    ],
    [
        7,
        2,
        8,
        1
    ],
    [
        7,
        2,
        8,
        2
    ],
    [
        7,
        2,
        8,
        3
    ],
    [
        7,
        4,
        8,
        4
    ],
    [
        7,
        9,
        8,
        5
    ],
    [
        7,
        10,
        8,
        6
    ],
    [
        8,
        0,
        9,
        0
    ],
    [
        8,
        4,
        9,
        1
    ],
    [
        8,
        4,
        9,
        2
    ],
    [
        8,
        4,
        9,
        3
    ],
    [
        8,
        4,
        9,
        4
    ],
    [
        8,
        5,
        9,
        5
    ],
    [
        8,
        6,
        9,
        6
    ]
]